<svg width="22" height="21" viewBox="0 0 22 21" fill="none" xmlns="http://www.w3.org/2000/svg">
<path d="M10.2391 1.12041C10.5384 0.199099 11.8418 0.199099 12.1412 1.12041L13.927 6.61653C14.0609 7.02855 14.4448 7.30751 14.878 7.30751H20.657C21.6257 7.30751 22.0285 8.54713 21.2448 9.11653L16.5695 12.5133C16.219 12.768 16.0724 13.2193 16.2062 13.6314L17.992 19.1275C18.2914 20.0488 17.2369 20.8149 16.4532 20.2455L11.7779 16.8487C11.4274 16.5941 10.9528 16.5941 10.6023 16.8487L5.92706 20.2455C5.14335 20.8149 4.08887 20.0488 4.38822 19.1275L6.17402 13.6314C6.30789 13.2193 6.16123 12.768 5.81075 12.5133L1.13547 9.11653C0.351755 8.54713 0.754531 7.30751 1.72325 7.30751H7.50222C7.93544 7.30751 8.3194 7.02855 8.45327 6.61653L10.2391 1.12041Z" fill="#FDAE38"/>
</svg>
